"area","longitude","latitude"
"City Viewer",-122.396908,37.8023779999998
"City Viewer",-122.396980759675,37.8023834569754
"City Viewer",-122.396988,37.8023794895911
"City Viewer",-122.396988,37.8023791576899
"City Viewer",-122.396957126137,37.8023448398572
"City Viewer",-122.396908,37.8023779999998
"Pic Place City",-122.39687,37.8023180000002
"Pic Place City",-122.396876,37.802328
"Pic Place City",-122.396917589295,37.8023008926919
"Pic Place City",-122.396892969688,37.8022735267748
"Pic Place City",-122.39687,37.8023180000002
"Shift Shore",-122.396876,37.8023280000001
"Shift Shore",-122.396877,37.802348
"Shift Shore",-122.396888,37.8023660000002
"Shift Shore",-122.396933759984,37.8023188672164
"Shift Shore",-122.396917589295,37.802300892692
"Shift Shore",-122.396876,37.8023280000001
"Sighter",-122.396888,37.8023660000002
"Sighter",-122.396892,37.8023829999998
"Sighter",-122.396908,37.8023779999998
"Sighter",-122.396957126137,37.8023448398572
"Sighter",-122.396933759984,37.8023188672164
"Sighter",-122.396888,37.8023660000002
"Sky Theatre",-122.396805118371,37.802254370306
"Sky Theatre",-122.396834,37.8022980000002
"Sky Theatre",-122.396843,37.8022980000002
"Sky Theatre",-122.396873137918,37.802251482778
"Sky Theatre",-122.396851399999,37.8022273200004
"Sky Theatre",-122.396805118371,37.802254370306
"Tide Col",-122.396892,37.8023829999999
"Tide Col",-122.396887,37.8024029999999
"Tide Col",-122.396882214521,37.8024374554453
"Tide Col",-122.396980759674,37.8023834569751
"Tide Col",-122.396908,37.8023779999999
"Tide Col",-122.396892,37.8023829999999
"Bricks",-122.396843,37.8022980000002
"Bricks",-122.39687,37.8023180000002
"Bricks",-122.396892969688,37.8022735267748
"Bricks",-122.396873137918,37.8022514827776
"Bricks",-122.396843,37.8022980000002
"Lexicon",-122.396751,37.8023789999998
"Lexicon",-122.396776,37.8023719999996
"Lexicon",-122.3968,37.8023370000002
"Lexicon",-122.396734,37.8023200000001
"Lexicon",-122.396751,37.8023789999998
"Bay Today",-122.39678042387,37.8022688035456
"Bay Today",-122.396807,37.8023260000001
"Bay Today",-122.396834,37.8022980000002
"Bay Today",-122.396805118372,37.802254370306
"Bay Today",-122.39678042387,37.8022688035456
"Draw Bay",-122.396676729839,37.8023294097811
"Draw Bay",-122.396678,37.8023410000002
"Draw Bay",-122.396683,37.802364
"Draw Bay",-122.396695,37.802393
"Draw Bay",-122.396744,37.8023919999995
"Draw Bay",-122.396749,37.8023879999999
"Draw Bay",-122.396751,37.8023789999998
"Draw Bay",-122.396734,37.8023200000001
"Draw Bay",-122.396716774876,37.8023060045869
"Draw Bay",-122.396676729839,37.8023294097811
"Library",-122.396807,37.8023260000003
"Library",-122.396802,37.8023370000002
"Library",-122.39681,37.8023450000001
"Library",-122.396877,37.802348
"Library",-122.396876,37.8023280000001
"Library",-122.39687,37.8023180000003
"Library",-122.396843,37.8022980000004
"Library",-122.396834,37.8022980000004
"Library",-122.396807,37.8023260000003
"Map Table",-122.396811,37.8023540000002
"Map Table",-122.396887,37.8024029999998
"Map Table",-122.396892,37.8023829999998
"Map Table",-122.396888,37.8023660000002
"Map Table",-122.396877,37.8023480000004
"Map Table",-122.39681,37.8023450000001
"Map Table",-122.396811,37.8023540000002
"Time Shift",-122.396716774876,37.8023060045868
"Time Shift",-122.396734,37.80232
"Time Shift",-122.3968,37.8023370000001
"Time Shift",-122.396802,37.8023370000001
"Time Shift",-122.396807,37.8023260000002
"Time Shift",-122.396780423869,37.802268803546
"Time Shift",-122.396716774876,37.8023060045868
"VizWall Bench",-122.396809,37.8024109999998
"VizWall Bench",-122.396811,37.802426
"VizWall Bench",-122.396828,37.8024579999999
"VizWall Bench",-122.396832626693,37.8024646274249
"VizWall Bench",-122.396882214521,37.8024374554452
"VizWall Bench",-122.396887,37.8024029999998
"VizWall Bench",-122.396811,37.8023540000002
"VizWall Bench",-122.396809,37.8024109999998
"Bay Model",-122.396695,37.802393
"Bay Model",-122.396694,37.802401
"Bay Model",-122.396717,37.8024349999997
"Bay Model",-122.396723,37.8024369999999
"Bay Model",-122.396742,37.8024189999997
"Bay Model",-122.396744,37.8023919999999
"Bay Model",-122.396695,37.802393
"Small Model",-122.396744,37.8023919999999
"Small Model",-122.396742,37.8024189999997
"Small Model",-122.396828,37.8024579999999
"Small Model",-122.396811,37.8024259999996
"Small Model",-122.396749,37.8023879999999
"Small Model",-122.396744,37.8023919999999
"Vitrine",-122.396751,37.8023789999998
"Vitrine",-122.396749,37.8023879999999
"Vitrine",-122.396811,37.802426
"Vitrine",-122.396809,37.8024109999998
"Vitrine",-122.396776,37.802372
"Vitrine",-122.396751,37.8023789999998
"Wired Pier",-122.396776,37.802372
"Wired Pier",-122.396809,37.8024109999998
"Wired Pier",-122.396811,37.8023540000002
"Wired Pier",-122.39681,37.8023450000001
"Wired Pier",-122.396802,37.8023370000002
"Wired Pier",-122.3968,37.8023370000002
"Wired Pier",-122.396776,37.802372
"Bay Viewer",-122.396616,37.8023649046585
"Bay Viewer",-122.396616,37.8023654093901
"Bay Viewer",-122.39663901305,37.8023906769207
"Bay Viewer",-122.396678,37.802341
"Bay Viewer",-122.396676729839,37.8023294097813
"Bay Viewer",-122.396616,37.8023649046585
"Pic Place Bay",-122.396648726873,37.8024013423621
"Pic Place Bay",-122.396669391316,37.8024240312041
"Pic Place Bay",-122.396694,37.802401
"Pic Place Bay",-122.396695,37.802393
"Pic Place Bay",-122.396683,37.8023640000004
"Pic Place Bay",-122.396648726873,37.8024013423621
"Ship Tracker",-122.39663901305,37.8023906769205
"Ship Tracker",-122.396648726873,37.8024013423621
"Ship Tracker",-122.396683,37.8023640000004
"Ship Tracker",-122.396678,37.8023410000002
"Ship Tracker",-122.39663901305,37.8023906769205
"Tidal Ribbon",-122.396669391316,37.8024240312038
"Tidal Ribbon",-122.39669626598,37.8024535386531
"Tidal Ribbon",-122.396717,37.8024350000001
"Tidal Ribbon",-122.396694,37.8024009999996
"Tidal Ribbon",-122.396669391316,37.8024240312038
"Mud Slide",-122.39669626598,37.8024535386531
"Mud Slide",-122.3967484,37.8025107799995
"Mud Slide",-122.396768107943,37.8024999809015
"Mud Slide",-122.396723,37.8024369999999
"Mud Slide",-122.396717,37.8024350000001
"Mud Slide",-122.39669626598,37.8024535386531
"Sed Core",-122.396723,37.8024369999999
"Sed Core",-122.396768107943,37.8024999809015
"Sed Core",-122.396832626693,37.8024646274249
"Sed Core",-122.396828,37.8024579999999
"Sed Core",-122.396742,37.8024190000001
"Sed Core",-122.396723,37.8024369999999
