"track_id","seq.sps"
"030614_black1","(Outdoor,16)-(Central,34)-(Seaglass,162)-(Outdoor,2)-(Seaglass,0)-(Outdoor,2)-(Seaglass,54)-(Outdoor,0)-(Seaglass,11)-(Outdoor,2)-(Seaglass,139)-(East,0)-(Mezz,0)-(East,11)-(Central,2)-(East,4)-(Central,7)-(East,0)-(Central,9)-(East,0)-(Central,0)-(East,0)-(Central,114)-(South,20)-(Central,0)-(South,94)-(Xroads,52)-(West,2)-(Entry,11)-(Outdoor,11)-(Entry,9)-(West,0)-(Xroads,4)-(West,72)-(Xroads,4)-(Entry,2)-(Outdoor,16)-(Entry,56)-(West,18)-(Xroads,22)-(West,247)-(Xroads,76)-(South,27)-(Xroads,4)-(South,52)-(Central,0)-(South,22)-(Central,9)-(South,7)-(Central,108)-(Outdoor,27)"
"030614_blue1","(West,25)-(Entry,7)-(Xroads,4)-(Entry,7)-(Xroads,228)-(South,478)-(Central,713)-(South,14)-(Central,0)-(South,71)-(Xroads,18)"
"030614_green1","(Xroads,10)-(West,9)-(Forum,292)-(West,12)-(Xroads,6)-(South,118)-(Central,0)-(South,1)-(Central,1)-(South,1)-(Central,10)-(South,7)-(Central,83)-(East,7)-(Central,15)-(South,7)-(Xroads,34)-(West,50)-(Xroads,4)-(West,18)-(Entry,7)-(Xroads,47)-(West,208)-(Xroads,24)-(South,18)-(Central,162)-(Outdoor,1)-(Central,24)-(East,3)-(Seaglass,15)-(Outdoor,22)-(Central,0)-(Seaglass,6)-(Mezz,0)-(East,66)-(Mezz,52)-(Seaglass,0)-(Obs,3)-(Seaglass,0)-(Outdoor,0)-(East,103)-(Mezz,24)-(East,41)-(Central,22)-(South,15)-(Xroads,9)"
"030614_orange1","(Outdoor,2)-(Entry,7)-(Xroads,0)-(Entry,8)-(West,0)-(Xroads,10)-(West,2)-(Xroads,22)-(South,2)-(Xroads,0)-(South,0)-(Xroads,7)-(South,0)-(Xroads,3)-(South,2)-(Xroads,3)-(South,2)-(Xroads,2)-(South,0)-(Xroads,2)-(South,54)-(Central,0)-(South,2)-(Central,10)-(South,0)-(Central,27)-(South,0)-(Central,44)-(South,0)-(Central,353)-(Outdoor,20)-(Central,18)-(Seaglass,0)-(Central,0)-(Outdoor,2)-(Seaglass,3)-(Outdoor,3)-(Seaglass,8)-(Outdoor,3)-(Seaglass,2)-(Outdoor,0)-(Central,330)-(South,10)-(Xroads,2)-(South,2)-(Xroads,5)-(West,0)-(Xroads,7)-(West,546)-(Xroads,23)"
"030614_pink1","(Outdoor,4)-(Entry,18)-(Xroads,2)-(Entry,2)-(Outdoor,0)-(Entry,0)-(Xroads,2)-(South,4)-(Xroads,4)-(South,4)-(Xroads,100)-(South,4)-(Xroads,16)-(South,2)-(Xroads,7)-(South,15)-(Xroads,7)-(South,9)-(Xroads,9)-(South,0)-(Xroads,4)-(West,4)-(Xroads,33)-(South,2)-(Xroads,4)-(South,16)-(Xroads,2)-(South,0)-(Xroads,0)-(South,13)-(Xroads,2)-(South,80)-(Central,4)-(South,2)-(Central,0)-(South,4)-(Central,0)-(South,0)-(Central,5)-(South,2)-(Central,4)-(South,4)-(Central,0)-(South,11)-(Central,0)-(South,9)-(Central,4)-(South,2)-(Central,4)-(South,9)-(Central,2)-(South,5)-(Central,24)-(South,0)-(Central,178)-(East,7)-(Mezz,0)-(Outdoor,11)-(Central,260)-(East,11)-(Central,7)-(East,258)-(Mezz,96)-(Seaglass,0)-(Obs,38)-(Seaglass,0)-(Obs,18)-(Seaglass,13)-(Obs,0)-(Seaglass,7)-(Obs,22)-(Seaglass,2)-(Obs,4)-(Seaglass,4)-(Obs,11)-(Seaglass,2)-(Obs,27)-(Seaglass,0)-(Obs,15)-(Mezz,33)-(East,31)-(Central,13)-(South,5)-(Xroads,9)"
"030614_red1","(Xroads,7)-(South,7)-(Central,11)-(East,36)-(Mezz,210)-(East,0)-(Mezz,20)-(East,2)-(Mezz,0)-(Seaglass,2)-(Mezz,108)-(East,95)-(Mezz,2)-(East,18)-(Central,248)-(South,65)-(Xroads,93)-(West,5)-(Xroads,5)-(West,5)-(Xroads,0)-(West,5)-(Xroads,2)-(West,47)-(Xroads,2)-(West,5)-(Xroads,0)-(West,2)-(Xroads,5)-(West,2)-(Xroads,0)-(West,5)-(Xroads,25)-(West,2)-(Xroads,14)-(West,0)-(Xroads,5)-(West,0)-(Xroads,16)-(West,0)-(Xroads,34)-(West,0)-(Xroads,11)-(West,2)-(Xroads,9)-(West,2)-(Xroads,0)-(West,0)-(Xroads,20)-(West,2)-(Xroads,149)-(West,14)-(Entry,5)-(Outdoor,9)-(Central,142)-(South,14)-(Xroads,0)-(South,5)-(Xroads,14)-(West,27)-(Xroads,9)"
"030614_white1","(Xroads,55)-(South,13)-(Central,22)-(South,133)-(Central,0)-(South,0)-(Central,312)-(Seaglass,2)-(East,2)-(Mezz,0)-(East,29)-(Mezz,20)-(Xroads,13)-(East,24)-(Mezz,310)-(Obs,60)-(Seaglass,44)-(Obs,44)-(Seaglass,16)-(Obs,53)-(Seaglass,0)-(Mezz,35)-(Xroads,7)-(West,2)-(Mezz,0)-(East,22)-(Central,168)-(East,35)-(Central,13)-(South,11)-(Xroads,20)-(West,80)-(Xroads,9)"
"030614_yellow1","(Xroads,44)-(South,40)-(Xroads,0)-(South,0)-(Xroads,28)-(West,79)-(Xroads,0)-(West,0)-(Xroads,30)-(West,2)-(Entry,7)-(Xroads,22)-(South,40)-(Central,3)-(South,13)-(Xroads,5)-(West,10)-(Forum,258)-(West,89)-(Xroads,10)-(South,230)-(Xroads,0)-(South,117)-(Central,3)-(South,0)-(Central,245)-(Seaglass,0)-(Central,8)-(Seaglass,2)-(Central,235)-(South,3)-(Xroads,10)-(South,2)-(Xroads,13)-(South,0)-(Xroads,7)"
"031614_black1","(Xroads,22)-(South,5)-(Xroads,3)-(South,221)-(Central,25)-(South,5)-(Central,637)-(South,0)-(Central,11)-(South,0)-(Central,38)-(South,3)-(Central,19)-(South,3)-(Central,0)-(South,0)-(Central,3)-(South,0)-(Central,8)-(South,0)-(Central,5)-(South,0)-(Central,11)-(South,0)-(Central,11)-(South,0)-(Central,14)-(South,104)-(Xroads,0)-(South,19)-(Xroads,27)-(South,3)-(Xroads,3)-(South,3)-(Xroads,0)-(South,0)-(Xroads,3)-(Entry,8)-(Xroads,0)-(West,3)-(Xroads,33)-(West,3)-(Xroads,3)-(West,5)-(Xroads,3)-(West,22)-(Xroads,3)-(West,5)-(Xroads,3)-(West,150)-(Forum,3)-(West,87)"
"031614_blue1","(Xroads,109)-(South,41)-(Xroads,1)-(South,0)-(Xroads,36)-(West,354)-(Xroads,0)-(West,0)-(Xroads,2)-(West,0)-(Xroads,31)-(South,145)-(Central,4)-(South,10)-(Central,1)-(South,0)-(Central,13)-(South,7)-(Central,20)-(South,1)-(Central,0)-(South,35)-(Central,610)-(South,3)-(Central,1)-(South,19)-(Central,1)-(South,23)-(Xroads,0)-(South,3)-(Xroads,2)-(South,7)-(Xroads,1)-(South,12)-(Xroads,7)-(South,2)-(Xroads,0)-(South,1)-(Xroads,14)-(West,20)-(Xroads,2)-(West,0)-(Xroads,0)-(West,0)-(Xroads,1)-(South,4)-(Central,2)-(South,1)-(Central,6)-(South,1)-(Xroads,1)"
"031614_red1","(Xroads,113)-(West,706)-(Xroads,9)-(West,0)-(Xroads,94)-(South,43)-(Xroads,2)-(South,2)-(Xroads,2)-(South,102)-(Central,206)-(East,23)-(Mezz,0)-(East,64)-(Mezz,4)-(Seaglass,15)-(East,9)-(Central,66)-(South,15)-(Central,0)-(South,9)-(Central,2)-(South,9)-(Central,2)-(South,2)-(Central,2)-(South,2)-(Central,2)-(South,0)-(Central,0)-(South,38)-(Xroads,17)"
"031614_yellow1","(Xroads,225)-(South,143)-(Xroads,0)-(South,0)-(Xroads,4)-(South,7)-(Xroads,0)-(South,4)-(Xroads,0)-(South,250)-(Xroads,7)-(South,4)-(Xroads,0)-(South,4)-(Xroads,4)-(South,4)-(Xroads,0)-(South,4)-(Xroads,7)-(South,0)-(Xroads,111)-(West,0)-(Xroads,4)-(West,14)-(Xroads,0)-(West,4)-(Xroads,4)-(West,693)-(Xroads,43)"
"040313_black1","(Xroads,32)-(West,148)-(Xroads,128)-(South,0)-(Xroads,2)-(South,5)-(Xroads,182)-(South,105)-(Central,5)-(South,0)-(Central,43)-(South,0)-(Central,2)-(South,0)-(Central,5)-(South,5)-(Central,0)-(South,5)-(Xroads,18)-(West,233)-(Xroads,11)-(South,9)-(Central,0)-(South,0)-(Central,379)-(East,0)-(Central,2)-(East,5)-(Central,9)-(East,0)-(Central,11)-(East,7)-(Mezz,64)-(Seaglass,0)-(Mezz,9)-(Central,0)-(Mezz,48)-(Xroads,0)-(West,0)-(Xroads,2)-(West,0)-(Mezz,18)-(East,5)-(Seaglass,2)-(East,11)-(Central,9)-(South,7)-(Xroads,11)"
"040313_blue1","(Xroads,14)-(Entry,8)-(Xroads,6)-(West,10)-(Forum,423)-(West,39)-(Xroads,0)-(West,1)-(Xroads,19)-(South,1)-(Xroads,7)-(South,18)-(Central,50)-(South,4)-(Xroads,8)-(West,509)-(Xroads,6)-(West,1)-(Xroads,1)-(West,3)-(Xroads,3)-(West,4)-(Xroads,6)-(West,1)-(Xroads,80)-(South,21)-(Central,218)-(Seaglass,1)-(East,14)-(Mezz,3)-(Obs,12)-(Seaglass,0)-(Obs,1)-(Seaglass,0)-(Mezz,17)-(East,18)-(Central,14)-(South,4)-(Xroads,19)"
"040313_green1","(Xroads,45)-(West,213)-(Xroads,3)-(West,46)-(Xroads,0)-(West,0)-(Xroads,10)-(West,0)-(Xroads,63)-(West,4)-(Xroads,7)-(South,18)-(Central,0)-(South,3)-(Central,74)-(South,14)-(Central,1)-(South,14)-(Central,1)-(South,1)-(Central,0)-(South,1)-(Central,0)-(South,10)-(Central,3)-(South,0)-(Central,1)-(South,3)-(Central,42)-(East,0)-(Central,3)-(East,11)-(Central,1)-(East,1)-(Central,14)-(East,11)-(Central,1)-(East,0)-(Central,0)-(East,0)-(Central,1)-(East,7)-(Central,0)-(East,0)-(Central,6)-(East,11)-(Mezz,18)-(East,74)-(Mezz,4)-(Seaglass,3)-(Mezz,4)-(East,4)-(Mezz,60)-(East,8)-(Mezz,8)-(Obs,48)-(Seaglass,3)-(Obs,7)-(Outdoor,3)-(Obs,10)-(Seaglass,0)-(Obs,4)-(Seaglass,3)-(Outdoor,1)-(Obs,8)-(Seaglass,0)-(Obs,10)-(Seaglass,0)-(Obs,17)-(Seaglass,0)-(Obs,13)-(Seaglass,1)-(Obs,25)-(Seaglass,0)-(Obs,42)-(Seaglass,0)-(Obs,51)-(Seaglass,0)-(Obs,31)-(Mezz,11)-(East,24)-(Mezz,3)-(East,14)-(Mezz,4)-(East,27)-(Mezz,0)-(East,14)-(Central,0)-(East,1)-(Central,1)-(East,1)-(Central,316)-(South,0)-(Xroads,1)-(South,1)-(Xroads,3)-(South,1)-(Xroads,3)"
"040313_pink1","(Xroads,7)-(South,7)-(Central,16)-(East,2)-(Seaglass,7)-(Outdoor,2)-(Seaglass,3)-(Outdoor,2)-(Seaglass,14)-(Outdoor,9)-(Seaglass,265)-(Central,94)-(East,0)-(Central,3)-(East,7)-(Mezz,12)-(East,10)-(Central,59)-(East,7)-(Central,12)-(East,3)-(Central,183)-(South,188)-(Xroads,12)-(South,5)-(Central,85)-(Outdoor,5)-(Central,3)-(Outdoor,0)-(Central,2)-(Outdoor,19)-(Entry,0)-(Xroads,2)-(Entry,2)-(Xroads,0)-(West,3)-(Xroads,3)-(West,2)-(Xroads,9)-(West,183)-(Xroads,0)-(West,0)-(Xroads,5)-(West,0)-(Xroads,2)-(West,9)-(Xroads,24)-(South,3)-(Central,2)-(South,0)-(Central,24)-(East,7)-(Obs,124)-(Seaglass,0)-(Mezz,7)-(East,12)-(Central,61)-(South,5)-(Xroads,2)-(South,7)-(Xroads,9)"
"040313_white1","(Xroads,132)-(West,473)-(Xroads,14)-(South,2)-(Xroads,2)-(South,2)-(Xroads,11)-(South,5)-(Xroads,18)-(South,37)-(Central,11)-(South,2)-(Central,6)-(South,0)-(Central,5)-(South,2)-(Central,2)-(South,0)-(Central,6)-(Outdoor,2)-(Central,193)-(East,6)-(Mezz,3)-(Central,0)-(East,40)-(Mezz,32)-(East,14)-(Mezz,6)-(East,3)-(Mezz,2)-(East,2)-(Mezz,0)-(East,87)-(Central,211)-(South,8)-(Xroads,3)-(West,49)-(Xroads,0)-(Entry,3)-(West,3)-(Entry,6)-(West,0)-(Entry,3)-(Xroads,2)-(Entry,3)-(Xroads,0)-(West,3)-(Xroads,0)-(Entry,12)-(Xroads,2)-(West,14)-(Entry,2)-(Xroads,0)-(West,0)-(Entry,2)-(Xroads,0)-(Entry,0)-(Xroads,0)-(West,23)-(Forum,0)-(Entry,11)-(West,47)-(Xroads,0)-(West,23)-(Xroads,3)"
"040313_yellow1","(Xroads,8)-(Entry,0)-(Xroads,7)-(Entry,5)-(Xroads,0)-(Entry,1)-(Xroads,3)-(Entry,0)-(Xroads,1)-(Entry,1)-(Xroads,54)-(West,0)-(Xroads,0)-(West,0)-(Xroads,8)-(West,155)-(Xroads,4)-(South,3)-(Central,210)-(East,0)-(Central,1)-(East,8)-(Central,0)-(East,27)-(Central,0)-(East,23)-(Mezz,9)-(East,57)-(Mezz,0)-(East,3)-(Central,34)-(East,1)-(Central,3)-(East,0)-(Central,322)-(South,84)-(Central,1)-(South,159)-(Xroads,1)-(South,1)-(Xroads,3)-(South,1)-(Xroads,144)-(West,0)-(Xroads,7)-(West,3)-(Xroads,0)-(Entry,15)-(West,15)-(Entry,4)-(Xroads,3)-(West,154)-(Xroads,9)"
"050114_blue1","(Xroads,16)-(South,23)-(Xroads,12)-(South,38)-(Central,403)-(Outdoor,0)-(Seaglass,5)-(East,9)-(Obs,0)-(Seaglass,0)-(Obs,47)-(Seaglass,0)-(Obs,110)-(Mezz,108)-(East,110)-(Mezz,0)-(East,9)-(Central,232)-(South,0)-(Central,2)-(South,2)-(Central,56)-(South,0)-(Central,5)-(South,2)-(Central,2)-(South,5)-(Central,2)-(South,9)-(Xroads,9)-(West,333)"
"050114_brown1","(Outdoor,25)-(Xroads,130)-(West,4)-(Xroads,108)-(South,2)-(Xroads,8)-(South,48)-(Central,4)-(South,2)-(Central,12)-(South,8)-(Central,273)-(East,52)-(Seaglass,2)-(East,17)-(Central,85)-(East,2)-(Central,4)-(East,23)-(Central,50)-(East,12)-(Seaglass,10)-(Central,159)-(East,21)-(Mezz,31)-(Seaglass,0)-(Mezz,17)-(Outdoor,21)-(Central,166)-(South,25)-(Xroads,8)-(West,139)-(Xroads,12)-(West,0)-(Xroads,21)-(West,0)-(Xroads,2)-(West,2)-(Xroads,58)"
"050114_green1","(Xroads,9)-(Entry,2)-(Xroads,2)-(Entry,2)-(Outdoor,5)-(Entry,0)-(Outdoor,5)-(Entry,4)-(Xroads,2)-(Entry,2)-(Xroads,108)-(West,13)-(Xroads,13)-(West,124)-(Xroads,11)-(South,9)-(Central,0)-(South,2)-(Central,2)-(South,2)-(Central,0)-(South,2)-(Central,0)-(South,7)-(Xroads,2)-(South,5)-(Xroads,5)-(South,4)-(Xroads,80)-(South,9)-(Central,0)-(South,262)-(Central,4)-(South,2)-(Central,4)-(South,2)-(Central,0)-(South,4)-(Central,0)-(South,2)-(Central,2)-(South,2)-(Central,2)-(South,0)-(Central,13)-(East,4)-(Seaglass,11)-(East,18)-(Seaglass,2)-(East,7)-(Central,89)-(Outdoor,2)-(Central,11)-(Outdoor,0)-(Central,9)-(South,0)-(Central,9)-(South,0)-(Central,4)-(South,0)-(Central,7)-(South,0)-(Central,9)-(South,2)-(Central,5)-(South,0)-(Central,5)-(South,0)-(Central,29)-(Outdoor,0)-(Central,436)-(East,5)-(Mezz,0)-(East,124)-(Central,15)-(Outdoor,7)"
"060114_black1","(Xroads,0)-(Entry,5)-(Xroads,110)-(West,14)-(Xroads,8)-(West,123)-(Forum,3)-(West,361)-(Xroads,0)-(West,14)-(Xroads,11)-(West,3)-(Xroads,93)-(South,14)-(Central,279)-(East,22)-(Central,0)-(East,3)-(Central,0)-(East,211)-(Central,22)-(East,22)-(Mezz,0)-(Central,0)-(Mezz,5)-(East,52)-(Central,79)-(South,3)-(Central,5)-(South,25)-(Xroads,16)-(South,0)-(Xroads,0)-(Outdoor,14)-(Entry,0)-(Outdoor,27)"
"060114_green1","(Xroads,39)-(South,0)-(Xroads,11)-(South,0)-(Xroads,7)-(South,4)-(Xroads,5)-(South,51)-(Central,0)-(South,14)-(Central,2)-(South,4)-(Central,4)-(South,0)-(Central,18)-(South,0)-(Central,5)-(South,2)-(Central,291)-(Outdoor,2)-(Central,4)-(Outdoor,4)-(Central,0)-(Outdoor,2)-(Central,11)-(Outdoor,12)-(Central,2)-(Outdoor,30)-(Central,32)-(East,19)-(Central,214)-(East,84)-(Central,130)-(South,4)-(Central,21)-(South,5)-(Xroads,9)-(South,2)-(Xroads,2)-(South,5)-(Central,5)-(South,2)-(Central,5)-(South,2)-(Central,9)-(South,0)-(Xroads,7)-(South,11)-(Xroads,5)-(South,4)-(Xroads,2)-(South,2)-(Xroads,5)-(South,2)-(Xroads,56)-(South,2)-(Xroads,4)-(West,9)-(Xroads,0)-(Entry,0)-(Xroads,2)-(West,2)-(Xroads,23)-(South,2)-(Xroads,9)-(South,4)-(Xroads,7)-(South,2)-(Xroads,2)-(South,2)-(Xroads,12)-(South,0)-(Xroads,7)-(South,12)-(Xroads,9)-(South,0)-(Xroads,2)-(West,14)-(Xroads,14)-(Entry,2)-(Xroads,14)-(Entry,2)-(Xroads,2)-(Entry,4)-(Xroads,16)-(Entry,5)-(Xroads,2)-(West,2)-(Xroads,4)-(Entry,2)-(West,0)-(Xroads,0)-(Entry,5)-(Xroads,5)-(Entry,0)-(Xroads,0)-(West,7)-(Xroads,0)-(West,165)-(Xroads,7)"
"060114_pink1","(Xroads,3)-(Entry,9)-(Xroads,6)-(Entry,3)-(Xroads,15)-(West,541)-(Xroads,82)-(South,122)-(Central,3)-(South,6)-(Central,0)-(South,6)-(Central,0)-(South,18)-(Central,3)-(South,9)-(Central,3)-(South,0)-(Central,12)-(South,0)-(Central,359)-(East,27)-(Central,9)-(East,131)-(Mezz,0)-(Xroads,33)-(East,30)-(Mezz,9)-(East,76)-(Central,18)-(South,6)-(Xroads,12)"
"060114_white1","(Xroads,1)-(Entry,0)-(Xroads,0)-(Entry,1)-(Outdoor,4)-(South,10)-(Central,2)-(South,1)-(Xroads,110)-(West,1)-(Xroads,4)-(West,33)-(Xroads,5)-(West,33)-(Xroads,0)-(West,15)-(Xroads,4)-(West,2)-(Xroads,27)-(South,95)-(Xroads,0)-(South,5)-(Xroads,88)-(South,21)-(Central,1)-(South,4)-(Central,137)-(Seaglass,147)-(Outdoor,0)-(Seaglass,20)-(Outdoor,0)-(Seaglass,33)-(Outdoor,76)-(Central,10)-(South,33)-(Xroads,10)-(Entry,2)-(Outdoor,0)-(Entry,11)-(West,361)-(Xroads,1)-(Entry,1)-(Outdoor,5)-(Entry,0)-(Xroads,1)-(South,6)-(Xroads,1)-(West,131)-(Xroads,4)-(South,0)-(Central,7)-(East,9)-(Mezz,10)-(Seaglass,65)-(Mezz,0)-(East,1)-(Central,7)-(South,1)-(Xroads,1)"
"060114_yellow1","(Outdoor,30)-(Central,48)-(Outdoor,15)-(Entry,106)-(West,6)-(Entry,0)-(Forum,9)-(West,30)-(Forum,6)-(Entry,18)-(West,18)-(Entry,30)-(Forum,3)-(Entry,55)-(Outdoor,9)-(Central,64)-(Outdoor,3)-(Seaglass,18)-(East,212)-(Mezz,3)-(East,112)-(Central,15)-(East,3)-(Central,3)-(East,15)-(Central,0)-(East,3)-(Central,6)-(East,3)-(Central,9)-(East,0)-(Central,330)-(South,36)-(Xroads,18)-(South,0)-(Xroads,130)-(West,0)-(Xroads,27)-(West,0)-(Xroads,3)-(West,133)-(Xroads,18)"
"060514_black1","(Xroads,115)-(West,1433)-(Xroads,20)"
"060514_black2","(Xroads,167)-(South,141)-(Central,1208)-(South,18)-(Xroads,35)"
"060514_blue1","(Xroads,6)-(West,0)-(Xroads,42)-(West,346)-(Forum,320)-(West,40)-(Xroads,44)-(South,1)-(Central,101)-(East,68)-(Central,3)-(East,0)-(Central,1)-(East,1)-(Central,1)-(East,1)-(Central,194)-(South,305)-(Xroads,21)-(West,6)-(Xroads,0)-(West,55)-(Xroads,6)"
"060514_green1","(Xroads,5)-(West,6)-(Xroads,15)-(South,3)-(Central,165)-(South,18)-(Central,15)-(East,0)-(Central,2)-(East,3)-(Central,0)-(East,5)-(Mezz,3)-(East,52)-(Central,31)-(South,0)-(Xroads,6)-(West,5)-(Xroads,0)-(West,9)-(Xroads,0)-(West,66)-(Entry,0)-(West,15)-(Entry,43)-(Forum,2)-(Entry,2)-(Forum,15)-(Entry,5)-(Forum,9)-(West,9)-(Forum,14)-(Entry,3)-(West,5)-(Forum,0)-(West,29)-(Xroads,0)-(Entry,3)-(Outdoor,18)-(South,8)-(Central,40)-(Outdoor,240)-(Central,11)-(Outdoor,6)-(Central,35)-(Outdoor,389)-(Central,26)-(South,5)-(Xroads,9)-(South,5)-(Xroads,2)-(South,2)-(Xroads,3)-(South,0)-(Xroads,9)-(West,8)-(Xroads,0)-(Entry,0)-(Xroads,0)-(West,6)-(Xroads,2)-(West,3)-(Xroads,2)-(West,5)-(Xroads,2)-(West,9)-(Xroads,2)-(West,5)-(Xroads,0)-(West,2)-(Xroads,3)-(West,3)-(Xroads,0)-(Entry,3)-(Xroads,0)-(West,0)-(Xroads,2)-(West,2)-(Xroads,15)-(West,69)-(Forum,2)-(West,18)-(Entry,2)-(Forum,0)-(West,11)-(Xroads,3)"
"060514_purple1","(Xroads,2)-(Entry,4)-(Xroads,7)-(Entry,2)-(Xroads,2)-(Entry,0)-(Xroads,2)-(Entry,4)-(Xroads,0)-(Entry,2)-(Xroads,48)-(South,16)-(Central,195)-(Seaglass,25)-(Outdoor,0)-(Seaglass,4)-(East,169)-(Central,41)-(East,50)-(Central,68)-(South,4)-(Central,0)-(South,23)-(Xroads,45)-(West,231)-(Xroads,2)-(West,4)-(Xroads,20)-(West,5)-(Xroads,5)-(West,0)-(Xroads,14)-(South,39)-(Xroads,9)-(West,115)-(Xroads,7)-(West,4)-(Xroads,4)-(West,2)-(Xroads,4)-(West,0)-(Xroads,22)-(South,0)-(Xroads,2)-(South,5)-(Central,4)-(East,2)-(Central,16)-(East,2)-(Central,74)-(East,79)-(Mezz,39)-(East,72)-(Central,38)-(South,2)-(Xroads,25)"
"060514_white1","(Xroads,163)-(West,19)-(Xroads,9)-(West,219)-(Forum,3)-(West,401)-(Xroads,31)-(West,13)-(Xroads,53)-(South,0)-(Xroads,3)-(South,0)-(Xroads,6)-(South,150)-(Central,304)-(Seaglass,0)-(Outdoor,0)-(Seaglass,6)-(Central,3)-(Outdoor,3)-(Central,3)-(Outdoor,6)-(Central,44)-(South,50)-(Xroads,13)-(West,19)-(Xroads,0)-(Entry,3)-(Outdoor,28)"
"060514_white2","(Xroads,3)-(Entry,0)-(Xroads,0)-(West,3)-(Xroads,0)-(Entry,65)-(Outdoor,3)-(Entry,8)-(West,3)-(Entry,5)-(Xroads,86)-(West,11)-(Xroads,5)-(West,5)-(Xroads,5)-(West,378)-(Xroads,0)-(West,3)-(Xroads,65)-(South,149)-(Central,0)-(South,11)-(Central,3)-(South,3)-(Central,424)-(East,62)-(SEApron,5)-(East,76)-(Mezz,38)-(Seaglass,8)-(East,46)-(Central,49)-(South,22)-(Xroads,5)-(Entry,3)-(Outdoor,5)"
"060814_black1","(Xroads,8)-(West,119)-(Xroads,1)-(West,0)-(Xroads,0)-(West,2)-(Xroads,4)-(West,0)-(Xroads,3)-(West,0)-(Xroads,0)-(West,0)-(Xroads,31)-(South,41)-(Central,1)-(South,6)-(Central,1)-(South,52)-(Central,0)-(South,0)-(Central,1)-(South,8)-(Central,0)-(South,3)-(Central,0)-(South,0)-(Central,1)-(South,2)-(Central,1)-(South,9)-(Central,10)-(South,1)-(Xroads,4)-(West,36)-(Xroads,28)-(West,1)-(Xroads,1)-(West,0)-(Xroads,46)-(South,3)-(Central,193)-(South,12)-(Central,1)-(South,1)-(Central,3)-(South,1)-(Central,0)-(South,5)-(Central,6)-(South,0)-(Central,1)-(South,0)-(Central,0)-(South,0)-(Central,7)-(South,1)-(Central,6)-(South,3)-(Xroads,0)-(South,0)-(Xroads,25)-(West,317)-(Xroads,1)-(West,0)-(Xroads,1)-(West,13)-(Xroads,0)-(West,0)-(Xroads,5)-(West,8)-(Xroads,10)-(South,0)-(Xroads,1)-(South,3)-(Central,7)-(East,5)-(Central,0)-(East,30)-(Seaglass,1)-(East,0)-(Mezz,0)-(Seaglass,4)-(East,16)-(Mezz,7)-(Central,11)-(East,41)-(Mezz,36)-(East,4)-(Central,4)-(South,2)-(Xroads,2)-(West,127)-(Xroads,3)-(South,2)-(Central,34)-(East,14)-(Mezz,1)-(Seaglass,0)-(Obs,5)-(Seaglass,3)-(Obs,0)-(Seaglass,0)-(Obs,114)-(East,1)-(Mezz,0)-(Central,0)-(Mezz,0)-(East,8)-(Central,4)-(Outdoor,3)"
"060814_blue1","(Xroads,2)-(Entry,2)-(Xroads,75)-(West,0)-(Xroads,28)-(West,26)-(Xroads,38)-(West,437)-(Xroads,53)-(South,115)-(Central,0)-(South,6)-(Central,4)-(South,41)-(Central,49)-(South,2)-(Central,21)-(South,0)-(Central,401)-(East,9)-(Central,2)-(East,0)-(Central,2)-(East,2)-(Central,17)-(East,0)-(Central,2)-(East,85)-(Central,32)-(South,4)-(Xroads,11)-(West,2)-(Xroads,15)-(South,49)-(Xroads,0)-(South,2)-(Xroads,21)"
"060814_blue2","(Xroads,0)-(West,8)-(Xroads,25)-(Entry,9)-(Xroads,7)-(Entry,1)-(Xroads,178)-(West,14)-(Xroads,0)-(West,1)-(Xroads,0)-(West,1)-(Xroads,14)-(West,97)-(Xroads,7)-(West,20)-(Xroads,13)-(West,632)-(Xroads,25)-(South,9)-(Xroads,21)-(Entry,1)-(West,8)-(Entry,17)-(Outdoor,8)-(Central,362)-(East,22)-(Central,41)-(South,7)-(Xroads,14)"
"060814_green1","(Xroads,5)-(Entry,2)-(Outdoor,5)-(Xroads,104)-(West,5)-(Xroads,5)-(West,14)-(Xroads,0)-(West,0)-(Xroads,0)-(West,396)-(Forum,2)-(West,14)-(Entry,0)-(West,275)-(Forum,0)-(West,2)-(Forum,2)-(West,9)-(Forum,0)-(West,109)-(Xroads,7)-(West,0)-(Xroads,33)-(West,7)-(Xroads,24)-(South,130)-(Central,7)-(South,0)-(Central,14)-(South,0)-(Central,182)-(East,140)-(Central,19)-(South,0)-(Central,14)-(Outdoor,17)"
"060814_orange2","(Xroads,101)-(West,3)-(Xroads,4)-(West,11)-(Xroads,48)-(West,3)-(Xroads,1)-(West,0)-(Xroads,26)-(West,0)-(Xroads,8)-(South,53)-(Xroads,5)-(South,115)-(Central,11)-(South,1)-(Central,1)-(South,0)-(Central,1)-(South,0)-(Central,164)-(East,11)-(Seaglass,1)-(Mezz,0)-(East,1)-(Seaglass,0)-(Mezz,11)-(Seaglass,3)-(East,14)-(Mezz,64)-(East,41)-(Mezz,82)-(Obs,1)-(Seaglass,0)-(Obs,90)-(Seaglass,0)-(Obs,1)-(Mezz,7)-(East,8)-(SEApron,1)-(East,8)-(SEApron,0)-(East,56)-(Central,3)-(East,16)-(Central,1)-(East,1)-(Central,3)-(East,0)-(Central,211)-(South,0)-(Central,4)-(South,8)-(Central,7)-(South,3)-(Xroads,27)-(West,4)-(Xroads,3)-(West,5)-(Xroads,1)-(West,0)-(Xroads,3)-(West,191)-(Xroads,4)-(South,8)-(Central,8)-(East,31)-(Seaglass,1)-(Mezz,3)-(Seaglass,3)-(East,23)-(Central,8)-(South,4)-(Xroads,8)"
"060814_pink1","(Forum,6)-(West,69)-(Entry,4)-(Outdoor,0)-(Entry,16)-(Outdoor,1)-(Entry,5)-(Outdoor,6)-(Entry,3)-(Xroads,9)-(West,0)-(Xroads,26)-(West,0)-(Xroads,42)-(South,174)-(Central,0)-(South,16)-(Central,0)-(South,5)-(Central,0)-(South,3)-(Central,9)-(South,10)-(Central,0)-(South,0)-(Central,191)-(Outdoor,1)-(Central,1)-(Outdoor,1)-(Central,23)-(Outdoor,0)-(Central,3)-(Outdoor,3)-(Central,8)-(Outdoor,6)-(Entry,0)-(Outdoor,13)-(Entry,0)-(Xroads,1)-(South,6)-(Xroads,19)-(South,1)-(Xroads,12)-(South,1)-(Xroads,1)-(South,0)-(Xroads,0)-(South,12)-(Xroads,1)-(South,1)-(Xroads,0)-(South,0)-(Xroads,19)-(West,10)-(Xroads,1)-(West,0)-(Xroads,0)-(West,0)-(Xroads,3)-(West,289)-(Entry,0)-(West,4)-(Entry,0)-(West,21)-(Entry,1)-(West,349)-(Forum,3)-(West,1)-(Entry,17)-(Outdoor,0)-(Entry,3)-(Outdoor,3)-(Central,1)-(Outdoor,23)-(Xroads,3)-(Central,4)-(Outdoor,57)-(Central,3)-(Outdoor,13)-(Xroads,3)"
"060814_purple1","(Xroads,33)-(Entry,0)-(Xroads,79)-(South,51)-(Central,7)-(South,2)-(Central,11)-(South,0)-(Central,7)-(South,180)-(Central,18)-(South,2)-(Central,650)-(South,2)-(Xroads,26)-(West,6)-(Xroads,6)-(West,374)-(Xroads,70)-(Entry,6)-(Xroads,37)"
"060814_yellow1","(Xroads,2)-(Entry,4)-(Xroads,11)-(South,2)-(Xroads,39)-(West,505)-(Xroads,26)-(South,96)-(Central,287)-(Outdoor,0)-(Central,2)-(Outdoor,2)-(Seaglass,4)-(East,57)-(Mezz,105)-(East,0)-(Xroads,379)-(South,0)-(Xroads,39)"
"062214_black1","(Xroads,3)-(Entry,1)-(Xroads,22)-(West,1)-(Xroads,7)-(West,3)-(Xroads,3)-(West,113)-(Xroads,3)-(West,0)-(Xroads,1)-(West,1)-(Xroads,3)-(West,742)-(Xroads,4)-(West,0)-(Xroads,73)-(South,136)-(Central,0)-(South,10)-(Central,1)-(South,11)-(Central,0)-(South,0)-(Central,3)-(South,4)-(Central,0)-(South,0)-(Central,1)-(South,1)-(Central,3)-(South,0)-(Central,0)-(South,1)-(Central,0)-(South,0)-(Central,1)-(South,1)-(Central,1)-(South,3)-(Central,0)-(South,1)-(Central,0)-(South,4)-(Central,3)-(South,3)-(Central,1)-(South,3)-(Central,1)-(South,1)-(Central,11)-(South,3)-(Central,29)-(South,1)-(Central,1)-(South,0)-(Central,189)-(East,0)-(Central,0)-(East,13)-(Central,1)-(East,6)-(Central,0)-(East,0)-(Central,0)-(East,8)-(Mezz,0)-(Xroads,8)-(South,1)-(Xroads,4)-(South,1)-(Xroads,3)-(Entry,10)-(Xroads,1)-(Entry,1)-(Xroads,7)-(Mezz,0)-(Central,6)-(Mezz,1)-(East,14)-(Central,8)-(South,3)-(Xroads,4)-(West,3)-(Xroads,0)-(Entry,1)-(Outdoor,6)-(Entry,11)-(Outdoor,3)"
"062214_blue1","(Xroads,4)-(Entry,0)-(Xroads,0)-(Entry,0)-(Xroads,4)-(Entry,9)-(Xroads,48)-(West,501)-(Xroads,79)-(South,66)-(Central,4)-(South,44)-(Central,532)-(East,66)-(Mezz,0)-(East,114)-(Central,35)-(South,9)-(Xroads,9)-(West,22)-(Xroads,4)"
"062214_blue2","(Xroads,0)-(Entry,2)-(Xroads,2)-(Entry,0)-(Xroads,7)-(West,0)-(Xroads,2)-(West,17)-(Xroads,15)-(West,5)-(Xroads,5)-(West,0)-(Xroads,5)-(West,343)-(Xroads,25)-(South,40)-(Central,2)-(South,2)-(Central,146)-(South,2)-(Central,5)-(South,20)-(Central,2)-(South,5)-(Central,246)-(East,104)-(Central,139)-(South,52)-(Xroads,72)-(Entry,5)-(Outdoor,20)-(Central,236)-(South,15)-(Xroads,15)"
"062214_brown1","(Xroads,25)-(Entry,11)-(Xroads,6)-(Entry,0)-(Xroads,48)-(South,127)-(Central,499)-(Outdoor,0)-(Central,631)-(East,107)-(Mezz,17)-(Outdoor,68)-(Central,14)-(South,6)-(Xroads,6)"
"062214_green1","(Xroads,3)-(Entry,1)-(Xroads,12)-(Entry,1)-(Xroads,1)-(Entry,10)-(Xroads,5)-(Entry,3)-(Xroads,44)-(West,0)-(Xroads,16)-(West,3)-(Xroads,4)-(West,95)-(Xroads,1)-(West,3)-(Xroads,1)-(West,3)-(Xroads,10)-(West,27)-(Xroads,0)-(West,298)-(Forum,0)-(West,23)-(Forum,0)-(West,205)-(Xroads,3)-(West,3)-(Xroads,1)-(West,0)-(Xroads,3)-(West,0)-(Xroads,3)-(West,0)-(Xroads,6)-(West,0)-(Xroads,0)-(Entry,1)-(Xroads,0)-(Entry,16)-(Xroads,1)-(Entry,5)-(Xroads,0)-(Entry,5)-(Xroads,0)-(Entry,12)-(Xroads,31)-(South,10)-(Central,1)-(South,1)-(Central,29)-(East,4)-(Central,0)-(East,3)-(Central,1)-(East,5)-(Central,3)-(East,4)-(Central,4)-(East,6)-(Central,13)-(East,1)-(Central,0)-(East,1)-(Central,125)-(Outdoor,10)-(Central,8)-(Outdoor,1)-(Central,5)-(Outdoor,8)-(Central,8)-(Outdoor,0)-(Central,0)-(Outdoor,5)-(Central,3)-(Outdoor,5)-(Central,57)-(Outdoor,0)-(Central,16)-(Outdoor,0)-(Central,80)-(South,10)-(Central,1)-(South,9)-(Xroads,0)-(South,3)-(Xroads,1)-(South,21)-(Central,1)-(South,26)-(Xroads,5)-(South,26)-(Central,0)-(South,12)-(Xroads,0)-(South,6)-(Central,0)-(South,10)-(Central,0)-(South,6)-(Xroads,3)-(South,44)-(Central,65)-(South,1)-(Xroads,10)"
"062214_pink1","(Xroads,5)-(Entry,0)-(Xroads,5)-(Entry,3)-(Xroads,5)-(Entry,33)-(Xroads,244)-(South,0)-(Xroads,73)-(South,3)-(Xroads,60)-(South,13)-(Xroads,3)-(South,10)-(Xroads,5)-(South,166)-(Central,58)-(South,0)-(Central,5)-(South,5)-(Central,10)-(South,0)-(Central,0)-(South,3)-(Central,0)-(South,0)-(Central,3)-(South,0)-(Central,3)-(South,3)-(Central,8)-(South,0)-(Central,13)-(South,5)-(Central,18)-(South,0)-(Central,10)-(South,10)-(Central,3)-(South,0)-(Central,13)-(South,10)-(Central,0)-(South,0)-(Central,18)-(South,0)-(Central,262)-(East,0)-(Central,13)-(East,3)-(Central,5)-(East,106)-(Seaglass,33)-(Central,259)-(South,8)-(Xroads,25)"
"062214_purple1","(Xroads,159)-(West,3)-(Xroads,0)-(West,421)-(Entry,47)-(Xroads,9)-(West,77)-(Xroads,53)-(West,109)-(Xroads,18)-(South,50)-(Central,6)-(South,38)-(Central,9)-(South,3)-(Central,0)-(South,9)-(Central,224)-(East,168)-(Central,3)-(East,6)-(Central,135)-(South,3)-(Xroads,15)"
"062214_purple2","(Xroads,185)-(South,76)-(Central,0)-(South,43)-(Central,1080)-(South,5)-(Xroads,87)-(Entry,5)-(Xroads,0)-(Entry,5)-(Xroads,0)-(Entry,5)-(Xroads,11)-(Entry,0)-(Xroads,22)-(Entry,0)-(Xroads,16)"
"062214_yellow1","(Xroads,48)-(Entry,0)-(Xroads,37)-(West,764)-(Xroads,10)-(Entry,0)-(Xroads,62)-(South,4)-(Xroads,15)-(South,2)-(Xroads,4)-(South,14)-(Xroads,2)-(South,162)-(Central,10)-(South,0)-(Central,12)-(South,4)-(Central,266)-(South,6)-(Xroads,4)-(West,2)-(Xroads,46)-(West,2)-(Xroads,0)-(West,0)-(Xroads,35)-(West,2)-(Xroads,15)-(South,12)-(Xroads,4)-(South,2)-(Xroads,15)"
"062914_black1","(Xroads,10)-(Entry,31)-(Xroads,33)-(South,2)-(Xroads,58)-(South,65)-(Central,2)-(South,0)-(Central,12)-(South,2)-(Central,64)-(South,0)-(Central,554)-(East,0)-(Central,39)-(East,2)-(Central,241)-(East,94)-(Central,2)-(East,6)-(Central,167)-(South,23)-(Xroads,13)-(West,0)-(Xroads,8)-(West,125)-(Entry,2)-(West,4)-(Entry,2)-(Xroads,0)"
"062914_blue1","(Xroads,55)-(West,317)-(Xroads,30)-(South,0)-(Xroads,10)-(South,45)-(Central,0)-(South,32)-(Central,6)-(South,1)-(Central,4)-(South,55)-(Central,1)-(South,1)-(Central,3)-(South,0)-(Central,679)-(East,35)-(Mezz,10)-(East,62)-(Mezz,16)-(East,14)-(Mezz,1)-(Seaglass,0)-(Obs,6)-(Seaglass,3)-(Obs,10)-(Seaglass,0)-(Obs,14)-(Seaglass,0)-(Mezz,10)-(East,10)-(Seaglass,13)-(East,6)-(Central,50)-(South,17)-(Xroads,7)-(West,3)-(Xroads,0)-(West,1)-(Xroads,30)"
"062914_brown1","(Xroads,0)-(Entry,24)-(Xroads,103)-(West,15)-(Xroads,3)-(West,6)-(Xroads,69)-(West,3)-(Xroads,3)-(West,1)-(Xroads,1)-(West,432)-(Xroads,65)-(South,3)-(Xroads,4)-(South,1)-(Xroads,26)-(South,0)-(Xroads,1)-(South,4)-(Xroads,10)-(South,96)-(Central,32)-(South,19)-(Central,3)-(South,24)-(Central,1)-(South,7)-(Central,471)-(East,32)-(Central,0)-(East,1)-(Central,84)-(South,3)-(Central,1)-(South,3)-(Xroads,10)"
"062914_green1","(Xroads,34)-(West,2)-(Xroads,13)-(West,0)-(Xroads,3)-(West,187)-(Forum,0)-(West,1)-(Forum,7)-(West,91)-(Xroads,32)-(West,1)-(Xroads,0)-(West,12)-(Xroads,0)-(West,0)-(Xroads,1)-(West,1)-(Xroads,3)-(West,1)-(Xroads,2)-(West,2)-(Xroads,0)-(West,0)-(Xroads,2)-(West,2)-(Xroads,0)-(West,1)-(Xroads,2)-(West,5)-(Xroads,35)-(South,1)-(Xroads,6)-(South,0)-(Xroads,2)-(South,1)-(Xroads,4)-(South,23)-(Xroads,0)-(South,3)-(Xroads,4)-(South,7)-(Xroads,2)-(South,1)-(Xroads,0)-(South,41)-(Central,2)-(South,1)-(Central,1)-(South,4)-(Central,2)-(South,0)-(Central,0)-(South,0)-(Central,1)-(South,4)-(Central,1)-(South,3)-(Central,3)-(South,1)-(Central,1)-(South,11)-(Central,1)-(South,1)-(Central,0)-(South,0)-(Central,0)-(South,2)-(Central,0)-(South,4)-(Central,1)-(South,1)-(Central,1)-(South,4)-(Central,0)-(South,15)-(Central,399)-(Outdoor,1)-(Central,1)-(Outdoor,2)-(Central,10)-(Outdoor,2)-(Central,218)-(East,2)-(Central,0)-(East,15)-(Seaglass,0)-(East,2)-(Seaglass,0)-(East,32)-(Mezz,34)-(East,11)-(Central,1)-(East,3)-(Central,56)-(Outdoor,0)-(Central,10)-(East,2)-(Central,3)-(South,4)-(Xroads,1)-(West,10)-(Forum,0)-(West,4)-(Forum,0)-(West,11)-(Forum,3)-(West,2)-(Forum,0)-(West,0)-(Entry,11)-(West,0)-(Entry,10)-(Forum,1)-(Entry,2)-(Forum,3)-(Entry,1)-(West,18)-(Xroads,4)-(South,13)-(Central,4)-(South,17)-(Xroads,9)"
"070314_black1","(Xroads,121)-(West,3)-(Xroads,7)-(West,1007)-(Xroads,7)-(West,0)-(Xroads,0)-(West,3)-(Xroads,28)-(South,3)-(Xroads,14)-(South,3)-(Xroads,14)-(South,3)-(Xroads,3)-(South,10)-(Xroads,14)-(South,3)-(Xroads,0)-(South,7)-(Xroads,24)-(South,17)-(Central,187)-(South,0)-(Central,0)-(South,3)-(Xroads,0)-(West,7)-(Xroads,14)-(South,24)-(Xroads,17)"
"070314_brown1","(Xroads,8)-(Entry,0)-(Xroads,2)-(Entry,3)-(Xroads,0)-(Entry,0)-(Xroads,19)-(Entry,2)-(Xroads,2)-(Entry,2)-(Xroads,0)-(Entry,5)-(Xroads,0)-(Entry,2)-(Xroads,26)-(West,450)-(Xroads,101)-(South,3)-(Xroads,8)-(South,29)-(Central,2)-(South,9)-(Central,3)-(South,0)-(Central,223)-(East,11)-(Central,2)-(East,115)-(Central,156)-(Outdoor,2)-(Central,306)-(Outdoor,2)-(Seaglass,2)-(Outdoor,0)-(Central,2)-(Seaglass,0)-(East,15)-(Central,23)-(South,5)-(Central,0)-(South,12)-(Xroads,8)"
"070314_purple1","(Xroads,3)-(Entry,0)-(Xroads,3)-(Entry,0)-(Xroads,5)-(South,96)-(Central,137)-(East,5)-(Central,2)-(East,85)-(Central,248)-(Outdoor,2)-(Central,8)-(Outdoor,0)-(Central,216)-(East,5)-(Mezz,18)-(Obs,78)-(Mezz,18)-(East,8)-(Central,42)-(Outdoor,31)-(Central,162)-(South,3)-(Xroads,10)-(West,7)-(Xroads,11)-(West,361)"
"070314_yellow1","(Xroads,8)-(Entry,2)-(Xroads,3)-(Entry,0)-(Xroads,2)-(Entry,5)-(Xroads,43)-(South,2)-(Xroads,2)-(South,20)-(Xroads,2)-(South,104)-(Central,73)-(South,2)-(Central,66)-(South,2)-(Central,33)-(South,0)-(Central,5)-(South,3)-(Central,2)-(South,13)-(Central,0)-(South,18)-(Central,0)-(South,71)-(Central,10)-(South,12)-(Central,2)-(South,0)-(Central,7)-(South,7)-(Central,3)-(South,2)-(Central,70)-(South,5)-(Xroads,3)-(West,949)-(Xroads,12)"
"071314_blue1","(Xroads,40)-(South,94)-(Central,2)-(South,2)-(Central,0)-(South,2)-(Central,0)-(South,0)-(Central,0)-(South,2)-(Central,2)-(South,11)-(Central,0)-(South,4)-(Central,0)-(South,7)-(Central,2)-(South,18)-(Xroads,5)-(South,5)-(Central,2)-(South,2)-(Central,0)-(South,0)-(Central,2)-(South,2)-(Central,0)-(South,2)-(Central,0)-(South,2)-(Central,0)-(South,2)-(Central,576)-(East,177)-(Mezz,50)-(Seaglass,0)-(Obs,86)-(East,2)-(Obs,43)-(Seaglass,2)-(Mezz,18)-(East,2)-(Seaglass,7)-(Central,133)-(South,0)-(Central,11)-(South,13)-(Xroads,49)-(West,128)-(Entry,25)-(Outdoor,16)"
"071314_brown1","(Xroads,38)-(South,34)-(Central,1)-(South,0)-(Central,282)-(Seaglass,7)-(East,88)-(Mezz,0)-(Outdoor,15)-(Mezz,16)-(Seaglass,0)-(Mezz,0)-(Seaglass,0)-(Mezz,16)-(Obs,23)-(Outdoor,3)-(Obs,72)-(Seaglass,0)-(Outdoor,0)-(Seaglass,0)-(Outdoor,0)-(Obs,0)-(Outdoor,1)-(Obs,37)-(Mezz,6)-(East,22)-(Central,8)-(East,3)-(Central,3)-(East,3)-(Seaglass,9)-(East,1)-(Seaglass,80)-(Obs,5)-(Seaglass,79)-(Obs,6)-(Seaglass,47)-(Central,16)-(Outdoor,0)-(Seaglass,11)-(East,2)-(Central,1)-(East,10)-(Central,6)-(East,74)-(Central,217)-(South,5)-(Central,3)-(South,2)-(Xroads,22)-(West,279)-(Xroads,1)"
"071314_yellow1","(Xroads,69)-(West,21)-(Xroads,0)-(Entry,2)-(Xroads,3)-(South,5)-(Xroads,0)-(South,56)-(Xroads,66)-(South,2)-(Xroads,8)-(South,2)-(Xroads,2)-(South,2)-(Xroads,42)-(South,0)-(Xroads,15)-(South,0)-(Xroads,6)-(South,26)-(Central,356)-(East,5)-(Central,111)-(South,0)-(Central,19)-(South,6)-(Xroads,8)-(West,68)-(Entry,224)-(Xroads,0)-(Entry,0)-(Xroads,8)-(South,15)-(Central,23)-(East,2)-(Central,2)-(East,2)-(Central,2)-(East,3)-(Central,0)-(East,2)-(Central,2)-(East,5)-(Central,2)-(East,2)-(Central,2)-(East,0)-(Central,3)-(East,114)-(Mezz,0)-(East,52)-(Seaglass,24)-(East,6)-(Mezz,129)-(Xroads,32)"
"072014_black1","(Xroads,7)-(Entry,0)-(Xroads,52)-(West,62)-(Xroads,14)-(West,0)-(Xroads,3)-(West,3)-(Xroads,14)-(West,510)-(Xroads,17)-(South,28)-(Central,0)-(South,3)-(Central,14)-(South,3)-(Central,10)-(South,3)-(Central,0)-(South,0)-(Central,7)-(South,3)-(Central,0)-(South,3)-(Central,214)-(Seaglass,3)-(Central,31)-(Seaglass,7)-(Central,14)-(Seaglass,3)-(East,14)-(Seaglass,17)-(East,0)-(Seaglass,3)-(East,121)-(Mezz,76)-(East,41)-(Central,86)-(South,97)-(Xroads,21)-(West,3)-(Xroads,0)-(Entry,7)-(Outdoor,24)"
"072014_blue1","(Xroads,184)-(South,3)-(Xroads,18)-(South,15)-(Xroads,30)-(South,148)-(Central,3)-(South,6)-(Central,3)-(South,3)-(Central,30)-(South,3)-(Central,3)-(South,3)-(Central,12)-(South,30)-(Central,6)-(South,6)-(Central,372)-(East,27)-(Central,287)-(South,12)-(Xroads,12)-(West,60)-(Xroads,0)-(West,278)-(Xroads,9)"
"072014_brown1","(Xroads,24)-(West,84)-(Xroads,18)-(South,87)-(Central,4)-(South,1)-(Central,3)-(South,0)-(Central,5)-(South,5)-(Xroads,5)-(Entry,6)-(West,8)-(Outdoor,6)-(Entry,0)-(West,9)-(Entry,3)-(Xroads,15)-(Entry,8)-(Xroads,13)-(South,3)-(Central,278)-(Outdoor,1)-(Seaglass,158)-(Outdoor,0)-(Seaglass,1)-(East,31)-(Mezz,39)-(East,65)-(Mezz,6)-(Outdoor,0)-(Mezz,29)-(Seaglass,0)-(Obs,9)-(Seaglass,1)-(Obs,6)-(Seaglass,1)-(Obs,1)-(Seaglass,0)-(Obs,1)-(Mezz,3)-(Obs,23)-(Mezz,4)-(East,89)-(Central,34)-(South,17)-(Xroads,4)-(West,453)"
"072014_green1","(Xroads,20)-(Entry,10)-(Xroads,10)-(Entry,20)-(Xroads,82)-(Entry,10)-(Xroads,20)-(Entry,61)-(Xroads,10)-(Entry,10)-(Xroads,183)-(South,0)-(Xroads,143)-(South,0)-(Xroads,10)-(South,0)-(Xroads,285)-(West,0)-(Xroads,0)-(West,469)-(Xroads,10)-(West,0)-(Xroads,0)-(West,122)-(Xroads,20)"
"072014_pink1","(Xroads,5)-(South,20)-(Xroads,45)-(South,0)-(Xroads,42)-(South,0)-(Xroads,17)-(South,164)-(Central,0)-(South,5)-(Central,2)-(South,0)-(Central,12)-(South,0)-(Central,0)-(South,0)-(Central,5)-(South,0)-(Central,5)-(South,0)-(Central,5)-(South,2)-(Central,0)-(South,2)-(Central,7)-(South,5)-(Central,10)-(South,0)-(Central,5)-(South,0)-(Central,487)-(East,127)-(Mezz,0)-(Xroads,35)-(Mezz,7)-(Outdoor,5)-(Entry,20)-(Xroads,124)-(Mezz,0)-(East,124)-(Central,5)-(East,15)-(Central,191)-(Outdoor,0)-(Central,12)-(Outdoor,2)-(Central,2)-(Outdoor,15)"
"072014_yellow1","(Xroads,53)-(South,32)-(Xroads,13)-(South,3)-(Xroads,0)-(South,2)-(Xroads,12)-(South,78)-(Central,13)-(South,22)-(Central,7)-(South,2)-(Central,3)-(South,2)-(Central,50)-(South,37)-(Central,0)-(South,3)-(Central,2)-(South,42)-(Central,2)-(South,23)-(Central,280)-(East,0)-(Central,5)-(East,67)-(Mezz,73)-(East,95)-(Central,0)-(East,3)-(Central,2)-(East,2)-(Central,3)-(East,0)-(Central,12)-(East,0)-(Central,3)-(East,0)-(Central,15)-(East,0)-(Central,2)-(East,2)-(Central,165)-(South,12)-(Xroads,7)-(West,20)-(Xroads,3)-(West,339)-(Xroads,48)"
"072714_blue1","(Xroads,94)-(South,13)-(Xroads,3)-(South,78)-(Central,397)-(East,5)-(Central,0)-(East,89)-(Mezz,3)-(East,23)-(Seaglass,3)-(East,29)-(Seaglass,8)-(East,3)-(Seaglass,0)-(East,37)-(Mezz,110)-(Seaglass,0)-(Obs,37)-(Mezz,3)-(Obs,31)-(Seaglass,0)-(Mezz,3)-(Seaglass,0)-(Obs,57)-(Seaglass,0)-(Mezz,73)-(East,84)-(Seaglass,8)-(Central,125)-(South,10)-(Xroads,16)-(West,5)-(Xroads,0)-(West,0)-(Xroads,3)-(West,201)"
"072714_blue2","(Xroads,0)-(Entry,7)-(Xroads,6)-(West,305)-(Xroads,28)-(West,2)-(Xroads,2)-(West,2)-(Xroads,13)-(West,0)-(Xroads,65)-(West,0)-(Xroads,135)-(South,4)-(Xroads,7)-(South,249)-(Central,391)-(East,79)-(Mezz,21)-(East,127)-(Mezz,50)-(East,2)-(Mezz,6)-(Seaglass,2)-(Obs,0)-(Seaglass,0)-(Outdoor,0)-(Obs,19)-(Mezz,6)-(East,7)-(Central,13)-(South,6)-(Xroads,6)"
"072714_brown1","(Xroads,28)-(West,346)-(Xroads,19)-(South,5)-(Xroads,7)-(South,12)-(Xroads,3)-(South,17)-(Central,2)-(South,2)-(Central,16)-(South,10)-(Xroads,14)-(South,5)-(Central,5)-(South,0)-(Central,286)-(South,14)-(Central,5)-(South,7)-(Central,0)-(South,3)-(Central,185)-(Outdoor,0)-(Central,202)-(East,5)-(Central,2)-(East,148)-(Mezz,72)-(Obs,44)-(Outdoor,5)-(Obs,0)-(Seaglass,0)-(Mezz,10)-(East,5)-(Seaglass,2)-(Central,0)-(Outdoor,7)-(Central,2)-(Outdoor,2)-(Central,2)-(Outdoor,2)-(Central,2)-(Outdoor,9)-(Central,2)-(Outdoor,31)-(Entry,3)-(Xroads,9)"
"072714_green1","(Xroads,11)-(South,4)-(Central,23)-(East,8)-(Seaglass,107)-(East,15)-(Mezz,4)-(Obs,8)-(Seaglass,0)-(Obs,11)-(Seaglass,0)-(Obs,153)-(Seaglass,0)-(Obs,4)-(Seaglass,11)-(Obs,15)-(Seaglass,0)-(Mezz,15)-(Seaglass,0)-(East,34)-(Mezz,99)-(East,19)-(Seaglass,19)-(East,4)-(Outdoor,23)-(Seaglass,8)-(East,119)-(Central,11)-(East,4)-(Central,8)-(East,4)-(Central,138)-(Outdoor,8)-(Central,0)-(Outdoor,19)-(Central,0)-(Outdoor,8)-(Central,19)-(Outdoor,4)-(Central,0)-(Outdoor,0)-(Central,27)-(Outdoor,8)-(Central,8)-(Outdoor,27)-(Central,8)-(Outdoor,4)-(Central,0)-(Outdoor,4)-(Central,88)-(Outdoor,0)-(South,50)-(Central,46)-(South,15)-(Central,8)-(South,31)-(Xroads,23)-(West,34)-(Forum,0)-(West,149)-(Xroads,57)"
"072714_green2","(Xroads,37)-(South,3)-(Xroads,3)-(South,7)-(Xroads,64)-(West,30)-(Xroads,3)-(West,13)-(Xroads,0)-(West,1113)-(Xroads,13)-(South,7)-(Central,44)-(East,40)-(Mezz,0)-(East,0)-(Mezz,111)-(East,40)-(Xroads,30)"
"072714_pink1","(Xroads,59)-(South,155)-(Central,264)-(East,8)-(Central,71)-(East,71)-(Mezz,164)-(East,59)-(Central,4)-(East,13)-(Central,4)-(East,4)-(Central,0)-(East,0)-(Central,4)-(East,0)-(Central,4)-(East,8)-(Central,0)-(East,4)-(Central,4)-(East,4)-(Central,71)-(South,21)-(Xroads,34)-(South,0)-(Xroads,21)-(West,327)-(Xroads,8)-(West,0)-(Xroads,67)-(South,4)-(Xroads,4)-(South,46)-(Xroads,17)-(South,8)-(Xroads,4)-(West,4)"
"072714_pink2","(Xroads,27)-(West,8)-(Xroads,2)-(West,37)-(Xroads,42)-(South,65)-(Central,10)-(South,0)-(Central,224)-(East,12)-(Central,0)-(East,83)-(Mezz,17)-(Central,5)-(East,48)-(Seaglass,7)-(Outdoor,0)-(Central,0)-(Seaglass,3)-(Mezz,0)-(East,17)-(Mezz,8)-(East,2)-(Mezz,2)-(East,2)-(Mezz,2)-(East,2)-(Mezz,2)-(East,2)-(Mezz,15)-(Seaglass,0)-(Obs,83)-(East,3)-(Seaglass,0)-(Obs,10)-(East,7)-(Obs,17)-(Seaglass,2)-(Obs,22)-(Seaglass,0)-(Mezz,66)-(East,28)-(Central,3)-(East,0)-(Central,249)-(South,30)-(Xroads,18)-(West,47)-(Xroads,2)-(West,251)-(Xroads,10)-(West,7)-(Xroads,3)-(Entry,0)-(Outdoor,18)-(Central,2)-(Outdoor,20)-(Central,5)-(Outdoor,10)"
"072714_yellow1","(Xroads,96)-(South,0)-(Xroads,1)-(South,6)-(Xroads,4)-(South,5)-(Xroads,1)-(South,0)-(Xroads,6)-(South,2)-(Xroads,77)-(South,50)-(Central,0)-(South,25)-(Central,1)-(South,1)-(Central,0)-(South,1)-(Central,176)-(East,72)-(Seaglass,2)-(Outdoor,2)-(Seaglass,4)-(Outdoor,0)-(Seaglass,1)-(Outdoor,6)-(Seaglass,0)-(Outdoor,1)-(Seaglass,14)-(Outdoor,2)-(Seaglass,1)-(Outdoor,4)-(Seaglass,1)-(Outdoor,1)-(Seaglass,2)-(Outdoor,1)-(Seaglass,0)-(Outdoor,2)-(Seaglass,253)-(East,5)-(Seaglass,1)-(East,13)-(Mezz,0)-(East,26)-(Central,0)-(East,8)-(Central,154)-(Seaglass,2)-(Central,178)-(South,25)-(Xroads,0)-(South,1)-(Xroads,0)-(South,6)-(Central,8)-(East,14)-(Mezz,60)-(East,18)-(Central,15)-(West,13)-(Xroads,0)-(West,84)-(Entry,1)-(West,1)-(Entry,4)-(West,0)-(Entry,2)-(West,0)-(Entry,1)-(West,1)-(Entry,0)-(West,5)-(Entry,0)-(West,1)-(Entry,1)-(West,1)-(Entry,1)-(West,74)"
"080714_blue1","(Xroads,5)-(West,167)-(Xroads,5)-(West,1)-(Xroads,0)-(West,2)-(Xroads,20)-(South,0)-(Xroads,17)-(South,4)-(Central,10)-(East,11)-(Mezz,4)-(Obs,23)-(Seaglass,0)-(Obs,48)-(Seaglass,1)-(Obs,31)-(Seaglass,1)-(Obs,0)-(Seaglass,1)-(Obs,5)-(Seaglass,1)-(Obs,12)-(Seaglass,2)-(Obs,5)-(Seaglass,1)-(Obs,114)-(Seaglass,6)-(Obs,10)-(Seaglass,2)-(Obs,7)-(Seaglass,2)-(Obs,53)-(Seaglass,4)-(Obs,6)-(Seaglass,0)-(Obs,166)-(Seaglass,1)-(Obs,14)-(Mezz,78)-(East,21)-(Central,24)-(South,1)-(Central,0)-(South,17)-(Central,309)-(South,1)-(Central,2)-(South,0)-(Central,0)-(South,4)-(Central,0)-(South,14)-(Central,4)-(South,6)-(Central,5)-(South,15)-(Xroads,1)-(South,2)-(Xroads,25)-(West,178)-(Xroads,4)-(South,71)-(Xroads,5)-(West,5)-(Xroads,5)"
"080714_brown1","(Xroads,4)-(Entry,3)-(Xroads,1)-(Entry,16)-(Outdoor,0)-(Entry,7)-(Outdoor,1)-(Entry,1)-(Outdoor,0)-(Entry,4)-(Xroads,3)-(Entry,1)-(Xroads,49)-(West,362)-(Forum,1)-(West,151)-(Xroads,39)-(South,0)-(Xroads,5)-(South,7)-(Central,79)-(South,3)-(Xroads,5)-(Entry,0)-(Xroads,20)-(Entry,0)-(Xroads,5)-(Entry,0)-(Xroads,11)-(South,4)-(Central,211)-(Outdoor,27)-(Central,3)-(Outdoor,25)-(Central,3)-(Outdoor,1)-(Central,1)-(Outdoor,8)-(Central,114)-(East,1)-(Central,4)-(East,99)-(Central,78)-(East,34)-(Seaglass,3)-(Mezz,0)-(East,1)-(Seaglass,0)-(East,1)-(Seaglass,1)-(East,0)-(Seaglass,0)-(East,1)-(Mezz,0)-(Seaglass,25)-(East,10)-(Mezz,0)-(Entry,0)-(Outdoor,3)-(East,1)-(Mezz,0)-(Outdoor,49)-(Central,10)-(South,4)-(Xroads,3)-(South,1)-(Xroads,1)-(West,39)"
"080714_pink1","(Xroads,4)-(West,255)-(Xroads,9)-(South,35)-(Central,2)-(South,9)-(Central,2)-(South,4)-(Central,6)-(South,2)-(Central,2)-(South,2)-(Central,0)-(South,4)-(Central,4)-(South,2)-(Central,6)-(South,0)-(Central,2)-(South,0)-(Central,0)-(South,2)-(Central,2)-(South,0)-(Central,218)-(East,37)-(Central,0)-(East,2)-(Central,0)-(East,209)-(Mezz,0)-(East,22)-(Central,32)-(East,2)-(Central,13)-(East,4)-(Central,432)-(Outdoor,0)-(Central,0)-(Outdoor,6)-(Entry,0)-(Xroads,4)-(West,58)-(Xroads,26)-(South,28)-(Central,0)-(South,0)-(Central,26)-(Outdoor,2)-(Central,0)-(Outdoor,4)-(Central,13)-(Outdoor,4)-(Entry,0)-(Xroads,6)-(South,22)-(Xroads,2)-(South,2)-(Xroads,4)"
"080714_purple1","(Xroads,80)-(Entry,2)-(Xroads,7)-(Entry,0)-(Xroads,98)-(West,4)-(Xroads,0)-(West,2)-(Xroads,2)-(West,4)-(Xroads,13)-(West,1164)-(Xroads,4)-(West,2)-(Xroads,11)-(South,80)-(Central,0)-(South,2)-(Central,29)-(East,13)-(Central,13)-(South,11)-(Xroads,9)-(Entry,0)-(Xroads,4)"
"090414_black1","(Xroads,63)-(South,85)-(Central,206)-(East,61)-(Seaglass,3)-(Central,317)-(South,24)-(Xroads,7)-(West,109)-(Xroads,5)-(West,0)-(Xroads,0)-(West,0)-(Xroads,3)-(West,3)-(Xroads,0)-(West,2)-(Xroads,3)-(West,3)-(Xroads,0)-(Entry,3)-(Xroads,0)-(Entry,0)-(Outdoor,2)-(Entry,0)-(Outdoor,0)-(Entry,2)-(Xroads,0)-(South,7)-(Central,19)-(Outdoor,3)-(Seaglass,9)-(Outdoor,7)-(Seaglass,0)-(Outdoor,20)-(Seaglass,2)-(Outdoor,2)-(Seaglass,0)-(Outdoor,0)-(Seaglass,406)-(East,7)-(Central,3)-(East,9)-(Central,5)-(East,2)-(Central,5)-(East,2)-(Central,0)-(East,5)-(Central,36)-(South,9)-(Xroads,3)-(West,0)-(Xroads,2)-(West,2)-(Xroads,0)-(West,70)-(Xroads,5)"
"090414_blue1","(Xroads,117)-(South,98)-(Central,3)-(South,0)-(Central,0)-(South,3)-(Central,0)-(South,5)-(Central,3)-(South,3)-(Central,5)-(South,3)-(Central,11)-(South,3)-(Central,0)-(South,0)-(Central,5)-(South,5)-(Central,0)-(South,0)-(Central,0)-(South,3)-(Central,5)-(South,3)-(Central,0)-(South,5)-(Central,5)-(South,11)-(Central,1089)-(South,0)-(Central,11)-(South,5)-(Central,14)-(South,16)-(Central,3)-(South,33)-(Xroads,8)-(South,5)-(Xroads,33)-(South,19)-(Xroads,8)"
"090414_brown1","(Xroads,9)-(South,2)-(Central,67)-(East,6)-(Central,0)-(East,0)-(Central,1)-(East,41)-(Central,5)-(East,16)-(Central,0)-(East,5)-(Central,0)-(East,41)-(Mezz,0)-(East,50)-(Mezz,2)-(Outdoor,129)-(Mezz,1)-(East,7)-(Outdoor,21)-(Mezz,79)-(Obs,4)-(Seaglass,0)-(Obs,10)-(Mezz,4)-(East,4)-(Obs,40)-(Seaglass,2)-(Mezz,2)-(East,0)-(Seaglass,0)-(East,1)-(Seaglass,1)-(East,36)-(Mezz,7)-(East,57)-(Central,202)-(East,10)-(Seaglass,1)-(Central,0)-(Outdoor,2)-(Seaglass,0)-(Outdoor,12)-(Seaglass,37)-(Outdoor,1)-(Seaglass,256)-(Outdoor,0)-(Seaglass,2)-(East,5)-(Mezz,2)-(Obs,35)-(Mezz,2)-(East,12)-(Central,43)-(South,150)-(Xroads,1)-(South,0)-(Xroads,4)-(West,30)-(Xroads,0)-(West,71)-(Entry,12)-(Forum,1)-(Entry,4)-(West,1)"
"090414_green1","(Xroads,11)-(Entry,3)-(Xroads,67)-(West,73)-(Xroads,5)-(West,741)-(Xroads,0)-(West,5)-(Xroads,87)-(South,11)-(Xroads,0)-(South,102)-(Central,10)-(South,0)-(Central,3)-(South,5)-(Central,428)-(Outdoor,11)-(Entry,0)-(Xroads,2)"
"090414_pink1","(Xroads,28)-(West,435)-(Xroads,0)-(West,80)-(Xroads,6)-(South,107)-(Central,156)-(Outdoor,81)-(SEApron,2)-(East,64)-(Mezz,24)-(East,204)-(Mezz,58)-(East,15)-(Central,274)-(South,2)-(Xroads,2)-(West,3)-(Xroads,0)-(West,2)-(Forum,3)-(West,6)-(Xroads,2)-(West,2)-(Entry,0)-(Outdoor,11)"
"090414_purple1","(Xroads,18)-(West,5)-(Xroads,2)-(West,43)-(Entry,8)-(Forum,0)-(West,2)-(Forum,0)-(West,215)-(Xroads,8)-(South,5)-(Central,16)-(East,8)-(Seaglass,496)-(East,18)-(Central,67)-(Outdoor,3)-(Central,0)-(Outdoor,10)-(Central,73)-(South,3)-(Xroads,35)-(South,13)-(Central,153)-(East,2)-(Central,33)-(South,73)-(Xroads,10)-(West,5)-(Xroads,3)-(West,0)-(Xroads,3)-(West,2)-(Xroads,2)-(West,18)-(Xroads,3)-(West,2)-(Xroads,2)-(West,3)-(Xroads,2)-(West,2)-(Xroads,0)-(West,3)-(Xroads,3)-(West,35)-(Xroads,11)-(Entry,18)-(Outdoor,11)-(Entry,0)-(Xroads,8)-(West,2)-(Xroads,2)-(West,0)-(Xroads,2)-(West,13)-(Xroads,2)-(West,14)-(Xroads,3)-(West,65)-(Xroads,5)"
"090414_yellow1","(Xroads,5)-(Entry,3)-(Xroads,44)-(South,2)-(Xroads,85)-(West,2)-(Xroads,16)-(West,3)-(Xroads,12)-(West,0)-(Xroads,17)-(West,2)-(Xroads,10)-(West,3)-(Xroads,5)-(West,0)-(Xroads,3)-(West,14)-(Xroads,10)-(West,9)-(Xroads,0)-(West,10)-(Xroads,2)-(West,354)-(Xroads,37)-(South,44)-(Central,3)-(South,10)-(Central,3)-(South,2)-(Central,3)-(South,0)-(Central,3)-(South,7)-(Central,3)-(South,0)-(Central,2)-(South,3)-(Central,343)-(South,2)-(Central,5)-(South,49)-(Xroads,5)-(South,3)-(Xroads,12)-(West,56)-(Xroads,16)-(South,5)-(Xroads,2)-(South,0)-(Xroads,3)-(South,5)-(Central,19)-(East,66)-(Mezz,80)-(Obs,21)-(Mezz,3)-(Seaglass,0)-(Obs,14)-(Seaglass,0)-(Mezz,35)-(East,21)-(Central,40)-(South,5)-(Xroads,9)"
"100214_black1","(Xroads,29)-(West,528)-(Xroads,23)-(West,0)-(Xroads,14)-(South,8)-(Xroads,39)-(South,169)-(Central,64)-(East,10)-(Mezz,0)-(East,10)-(Seaglass,14)-(Mezz,12)-(East,6)-(Mezz,0)-(East,19)-(Central,132)-(East,25)-(Mezz,109)-(East,53)-(Central,2)-(East,2)-(Central,121)-(Outdoor,10)-(Central,125)-(South,0)-(Central,4)-(South,12)-(Xroads,8)-(West,2)-(Xroads,8)"
"100214_blue1","(Xroads,14)-(Entry,2)-(Xroads,147)-(West,9)-(Xroads,75)-(South,66)-(Central,448)-(Outdoor,7)-(Central,18)-(Outdoor,2)-(Central,14)-(Outdoor,0)-(Central,5)-(Outdoor,0)-(Seaglass,72)-(East,27)-(Central,357)-(South,5)-(Central,2)-(South,111)-(Xroads,2)-(South,2)-(Xroads,50)-(West,131)"
"100214_brown1","(Xroads,3)-(Entry,0)-(Xroads,69)-(West,1)-(Xroads,26)-(West,77)-(Forum,612)-(West,17)-(Xroads,4)-(South,20)-(Xroads,64)-(South,37)-(Central,0)-(South,31)-(Central,3)-(South,11)-(West,3)-(Xroads,1)-(West,0)-(Xroads,0)-(West,1)-(Xroads,1)-(West,3)-(Xroads,1)-(South,57)-(Central,0)-(South,33)-(Central,0)-(South,6)-(Central,247)-(East,3)-(Central,13)-(East,52)-(Mezz,0)-(East,60)-(Mezz,0)-(Central,0)-(Mezz,9)-(East,47)-(Central,26)-(South,13)-(Xroads,7)"
"100214_green1","(Xroads,10)-(West,21)-(Xroads,3)-(West,1030)-(Xroads,21)-(South,182)-(Central,14)-(South,10)-(Central,7)-(South,27)-(Central,3)-(South,0)-(Central,3)-(South,3)-(Xroads,3)-(Central,38)-(South,31)-(Central,0)-(South,7)-(Central,76)-(South,7)-(Xroads,38)-(West,3)-(Xroads,0)-(Entry,7)-(Xroads,3)-(Entry,0)-(Xroads,7)"
"100214_grey1","(Xroads,2)-(Entry,0)-(Xroads,0)-(Entry,35)-(Xroads,122)-(South,18)-(Xroads,2)-(South,53)-(Xroads,51)-(South,37)-(Central,300)-(Outdoor,12)-(Central,2)-(Outdoor,24)-(Central,6)-(Outdoor,0)-(Central,57)-(East,226)-(Mezz,0)-(East,108)-(SEApron,39)-(East,6)-(Central,106)-(South,6)-(Xroads,22)-(West,280)-(Xroads,45)"
"100214_pink1","(Xroads,20)-(South,3)-(Central,0)-(South,2)-(Central,19)-(East,3)-(Seaglass,22)-(Outdoor,0)-(Seaglass,3)-(Outdoor,2)-(Seaglass,0)-(Outdoor,3)-(Seaglass,17)-(Outdoor,3)-(Seaglass,0)-(Outdoor,2)-(Seaglass,211)-(East,34)-(Mezz,0)-(East,17)-(Mezz,0)-(East,42)-(Central,107)-(South,3)-(Xroads,17)-(Entry,0)-(Xroads,0)-(Entry,2)-(Xroads,6)-(West,345)-(Xroads,16)-(West,0)-(Xroads,82)-(South,3)-(Xroads,12)-(South,79)-(Central,0)-(South,3)-(Central,216)-(East,5)-(Central,12)-(East,0)-(Central,3)-(East,2)-(Central,2)-(East,2)-(Central,0)-(East,12)-(Central,2)-(East,20)-(Mezz,31)-(East,3)-(Mezz,6)-(East,101)-(Seaglass,11)-(East,0)-(Seaglass,0)-(East,11)-(Central,16)-(South,2)-(Xroads,16)"
"100214_purple1","(Xroads,0)-(Entry,4)-(Xroads,6)-(Entry,3)-(Xroads,88)-(West,72)-(Xroads,0)-(West,43)-(Forum,549)-(West,130)-(Xroads,51)-(South,1)-(Xroads,1)-(South,37)-(Xroads,1)-(South,13)-(Central,3)-(South,10)-(Central,4)-(South,0)-(Central,0)-(South,3)-(Central,3)-(South,3)-(Central,1)-(South,3)-(Central,1)-(South,52)-(Central,4)-(East,7)-(Central,10)-(South,18)-(Central,0)-(South,6)-(Central,13)-(East,3)-(Central,406)-(South,3)-(Xroads,3)"
"100214_yellow1","(Xroads,0)-(Entry,3)-(Xroads,0)-(Entry,14)-(Xroads,0)-(Entry,5)-(Xroads,16)-(West,232)-(Xroads,27)-(West,642)-(Xroads,11)-(South,14)-(Central,27)-(South,0)-(Central,446)-(South,36)-(Xroads,22)-(South,3)-(Xroads,11)-(South,3)-(Xroads,30)-(Entry,5)-(Xroads,5)-(Entry,0)-(Xroads,3)"
"110614_black1","(Xroads,0)-(Entry,0)-(Outdoor,17)-(Entry,0)-(Xroads,0)-(Entry,0)-(Outdoor,6)-(Entry,0)-(Outdoor,0)-(Entry,4)-(Outdoor,2)-(Entry,2)-(Outdoor,4)-(Entry,2)-(Outdoor,9)-(Entry,4)-(Xroads,2)-(South,11)-(Xroads,2)-(South,7)-(Xroads,7)-(South,22)-(Xroads,7)-(West,0)-(Xroads,22)-(West,494)-(Xroads,6)-(West,2)-(Xroads,0)-(West,2)-(Xroads,33)-(South,43)-(Central,460)-(East,85)-(Mezz,0)-(Central,2)-(Mezz,4)-(Central,4)-(East,11)-(Mezz,26)-(Xroads,13)-(East,72)-(Mezz,74)-(Obs,2)-(Mezz,0)-(Obs,6)-(Mezz,0)-(Obs,0)-(Mezz,22)-(Obs,4)-(Seaglass,0)-(Mezz,4)-(Xroads,4)-(East,9)-(Central,15)-(South,7)-(Xroads,0)-(South,4)-(Xroads,4)"
"110614_blue1","(Xroads,0)-(Entry,40)-(Xroads,129)-(South,15)-(Xroads,174)-(West,96)-(Xroads,4)-(South,68)-(Central,2)-(South,4)-(Central,4)-(South,2)-(Central,2)-(South,2)-(Central,4)-(South,2)-(Central,2)-(South,2)-(Central,2)-(South,4)-(Central,2)-(South,4)-(Central,0)-(South,2)-(Central,2)-(South,2)-(Central,0)-(South,0)-(Central,2)-(South,0)-(Central,0)-(South,6)-(Central,0)-(South,4)-(Central,11)-(South,2)-(Central,2)-(South,2)-(Central,0)-(South,0)-(Central,563)-(Outdoor,2)-(Central,68)-(East,0)-(Central,4)-(East,51)-(Mezz,34)-(East,78)-(Central,129)-(South,8)-(Xroads,19)"
"110614_brown1","(Xroads,31)-(Entry,3)-(Xroads,6)-(Entry,1)-(Xroads,40)-(Entry,4)-(Xroads,157)-(South,0)-(Xroads,0)-(South,0)-(Xroads,6)-(South,129)-(Central,269)-(East,0)-(Central,6)-(East,3)-(Central,148)-(Outdoor,13)-(Central,1)-(Outdoor,15)-(Central,0)-(Outdoor,6)-(Seaglass,3)-(East,7)-(Seaglass,9)-(East,7)-(Mezz,0)-(Central,7)-(East,126)-(Mezz,103)-(Seaglass,0)-(Mezz,13)-(Obs,15)-(Seaglass,0)-(Mezz,0)-(East,1)-(Mezz,39)-(Obs,0)-(Mezz,21)-(Obs,6)-(Mezz,9)-(East,151)-(Seaglass,1)-(East,0)-(Mezz,1)-(Seaglass,3)-(East,4)-(Central,130)-(South,9)-(Xroads,34)-(West,0)-(Xroads,0)-(Entry,0)-(Xroads,6)"
"110614_green1","(Xroads,16)-(Entry,8)-(Xroads,16)-(Entry,0)-(Xroads,0)-(Entry,2)-(Xroads,103)-(South,132)-(Central,236)-(South,5)-(Xroads,2)-(South,2)-(Xroads,5)-(South,7)-(Central,10)-(Outdoor,2)-(Central,0)-(Outdoor,0)-(Central,316)-(Outdoor,0)-(Seaglass,47)-(Outdoor,3)-(Central,0)-(Seaglass,2)-(East,11)-(Mezz,70)-(Seaglass,0)-(Obs,5)-(Mezz,82)-(East,60)-(Mezz,23)-(East,72)-(Mezz,55)-(East,96)-(Central,0)-(East,2)-(Central,104)-(South,7)-(Xroads,38)-(Entry,0)-(Xroads,5)-(South,5)-(Xroads,7)"
"110614_itchy1","(Xroads,3)-(Entry,5)-(Xroads,0)-(Entry,5)-(Xroads,2)-(Entry,2)-(Xroads,2)-(Entry,0)-(Xroads,0)-(Entry,2)-(Xroads,23)-(Central,8)-(Xroads,29)-(West,6)-(Xroads,3)-(West,0)-(Xroads,0)-(West,493)-(Xroads,29)-(West,331)-(Xroads,24)-(South,27)-(Central,165)-(East,66)-(Mezz,3)-(Seaglass,0)-(Obs,0)-(Seaglass,3)-(Obs,26)-(Seaglass,0)-(Obs,2)-(Mezz,21)-(East,75)-(Seaglass,9)-(Central,2)-(Outdoor,11)-(Central,131)-(South,24)-(Xroads,32)"
"110614_pink1","(Outdoor,19)-(Entry,17)-(West,124)-(Xroads,8)-(West,6)-(Xroads,0)-(Entry,2)-(Xroads,4)-(South,14)-(Central,4)-(South,2)-(Central,39)-(East,12)-(Central,2)-(East,0)-(Central,14)-(East,64)-(Central,2)-(East,54)-(Central,17)-(South,10)-(Central,379)-(East,14)-(Obs,56)-(Seaglass,0)-(Obs,8)-(Mezz,10)-(Obs,0)-(Mezz,39)-(East,2)-(Mezz,45)-(East,82)-(Mezz,8)-(East,10)-(Central,70)-(South,43)-(Central,78)-(East,0)-(Central,2)-(East,10)-(Seaglass,8)-(Outdoor,16)-(Central,0)-(Outdoor,86)-(Central,142)-(South,4)-(Xroads,6)-(Entry,0)-(Xroads,0)-(Entry,0)-(Outdoor,2)-(Entry,0)-(Outdoor,2)-(Entry,4)-(Outdoor,2)-(Entry,2)-(Outdoor,10)"
"110614_purple1","(Xroads,37)-(West,2)-(Xroads,32)-(West,37)-(Forum,0)-(West,267)-(Xroads,34)-(South,152)-(Xroads,46)-(West,55)-(Forum,339)-(West,10)-(Xroads,5)-(South,5)-(Central,14)-(East,196)-(Mezz,56)-(East,26)-(Obs,17)-(Seaglass,0)-(Obs,0)-(Seaglass,0)-(Mezz,2)-(Obs,111)-(Mezz,10)-(East,17)-(Central,0)-(East,0)-(Central,46)-(South,3)-(Xroads,2)-(South,0)-(Xroads,3)-(South,2)-(Xroads,31)"
"110614_scratchy1","(Xroads,5)-(South,3)-(Central,68)-(Outdoor,3)-(Central,94)-(Outdoor,84)-(Central,111)-(South,12)-(Central,114)-(South,1)-(Central,12)-(South,1)-(Central,9)-(South,5)-(Central,4)-(South,19)-(Xroads,27)-(West,20)-(Forum,4)-(West,39)-(Xroads,3)-(South,5)-(Central,8)-(East,21)-(Seaglass,4)-(Central,1)-(Outdoor,15)-(Central,1)-(Outdoor,96)-(Central,9)-(East,24)-(Central,25)-(South,4)-(Xroads,3)-(West,5)-(Forum,28)-(West,0)-(Forum,3)-(West,1)-(Forum,16)-(West,3)-(Forum,12)-(West,3)-(Forum,0)-(West,4)-(Forum,1)-(West,1)-(Forum,9)-(West,1)-(Forum,16)-(West,3)-(Forum,8)-(Xroads,0)-(South,0)-(Xroads,1)-(South,3)-(Central,0)-(Outdoor,7)-(Entry,0)-(Xroads,0)-(West,5)-(Xroads,0)-(West,0)-(Xroads,3)-(West,5)-(Forum,0)-(West,4)-(Xroads,5)-(West,0)-(Entry,1)-(Xroads,0)-(West,0)-(Xroads,3)-(West,3)-(Entry,0)-(Forum,0)-(Entry,1)-(West,4)-(Forum,247)-(West,7)-(Xroads,1)-(West,0)-(Xroads,3)-(West,3)-(Xroads,5)-(West,1)-(Xroads,3)-(West,1)-(Xroads,5)-(South,3)-(Central,7)-(East,3)-(Seaglass,17)-(Central,3)-(Outdoor,5)-(Central,19)-(Outdoor,7)-(Central,5)-(Outdoor,3)-(Central,4)-(Outdoor,24)-(Central,13)-(Outdoor,4)-(Central,20)-(South,3)-(Xroads,13)-(West,5)-(Xroads,1)-(West,79)-(Xroads,17)"
"110614_yellow1","(Xroads,3)-(Entry,40)-(Xroads,0)-(Entry,32)-(Xroads,5)-(West,142)-(Xroads,111)-(South,0)-(Xroads,2)-(South,8)-(Central,356)-(East,5)-(Central,5)-(East,0)-(Central,2)-(East,40)-(Mezz,3)-(Seaglass,2)-(Outdoor,2)-(Seaglass,2)-(East,13)-(Mezz,40)-(East,8)-(Central,177)-(East,17)-(Mezz,13)-(Seaglass,0)-(Obs,3)-(Seaglass,0)-(Mezz,3)-(Seaglass,0)-(Obs,2)-(Seaglass,0)-(Mezz,2)-(Seaglass,0)-(Obs,3)-(Seaglass,0)-(Obs,9)-(Seaglass,2)-(Obs,8)-(Mezz,3)-(Obs,24)-(Mezz,2)-(Obs,5)-(Seaglass,3)-(Obs,3)-(Seaglass,2)-(Obs,47)-(Seaglass,0)-(Obs,41)-(Seaglass,0)-(Obs,66)-(Seaglass,0)-(Obs,14)-(Seaglass,8)-(Obs,51)-(Seaglass,3)-(Obs,9)-(Seaglass,0)-(Mezz,5)-(Obs,13)-(Mezz,16)-(Seaglass,13)-(East,0)-(Seaglass,2)-(East,0)-(Mezz,0)-(East,8)-(Mezz,0)-(East,5)-(Seaglass,5)-(East,6)-(Central,115)-(South,5)-(Xroads,14)"
